<?xml version="1.0" encoding="UTF-8"?>
<session version="1.0">
<refactoring comment="Copy element &apos;application.properties&apos; to &apos;deploy-article/src/main/resources&apos;&#x0D;&#x0A;- Original project: &apos;deploy-article&apos;&#x0D;&#x0A;- Destination element: &apos;deploy-article/src/main/resources&apos;&#x0D;&#x0A;- Original element: &apos;application.properties&apos;" description="Copy file" destination="/src\/main\/resources=/maven.pomderived=/true=/" element1="src/main/resources/application.properties" files="1" flags="589830" folders="0" id="org.eclipse.jdt.ui.copy" policy="org.eclipse.jdt.ui.copyResources" stamp="1644996875955" units="0" version="1.0"/>
</session>